Removed Pin From Net: NetName=VDD3V3 Pin=P9-1
Removed Pin From Net: NetName=STM_RST Pin=P9-2
Removed Pin From Net: NetName=STM_SWCLK Pin=P9-3
Removed Pin From Net: NetName=STM_SWDIO Pin=P9-4
Removed Pin From Net: NetName=GND Pin=P9-5
Removed Member From Class: ClassName=Core_ESP8266 Member=P9
Added Component: Designator=P10(HDR MALE 1X5)
Added Pin To Net: NetName=VDD3V3 Pin=P10-1
Added Pin To Net: NetName=STM_RST Pin=P10-2
Added Pin To Net: NetName=STM_SWCLK Pin=P10-3
Added Pin To Net: NetName=STM_SWDIO Pin=P10-4
Added Pin To Net: NetName=GND Pin=P10-5
Added Member To Class: ClassName=Core_ESP8266 Member=Component P10 HeaderSingle 5
