Added Component: Designator=IC*1(ESP8266 ESP-12-E)
Added Component: Designator=IC*2(ESP8266 ESP-07)
Added Component: Designator=IC*3(ESP8266 ESP-01)
Added Component: Designator=NodeMCU-1(NodeMCU V1.0 ESP-12E)
Added Pin To Net: NetName=GND Pin=IC*2-8
Added Pin To Net: NetName=GND Pin=IC*3-7
Added Pin To Net: NetName=GND Pin=NodeMCU-1-GND
Added Pin To Net: NetName=GND Pin=NodeMCU-1-GND
Added Pin To Net: NetName=GND Pin=NodeMCU-1-GND
Added Pin To Net: NetName=GND Pin=NodeMCU-1-GND
Added Net: Name=GND
Added Pin To Net: NetName=VCC Pin=IC*2-1
Added Pin To Net: NetName=VCC Pin=IC*2-1
Added Pin To Net: NetName=VCC Pin=IC*3-2
Added Pin To Net: NetName=VCC Pin=NodeMCU-1-3V3
Added Pin To Net: NetName=VCC Pin=NodeMCU-1-3V3
Added Pin To Net: NetName=VCC Pin=NodeMCU-1-3V3
Added Net: Name=VCC
Added Class: Name=Core_ESP8266
Added Room: Name=Core_ESP8266
