Added Component: Designator=R64(RES-0805)
Added Pin To Net: NetName=STM_BOOT0 Pin=R64-1
Added Pin To Net: NetName=GND Pin=R64-2
Added Member To Class: ClassName=STM32_core_extentionv1 Member=Component R64 10k
Added Room: Name=STM32_core_extentionv1
