Removed Pin From Net: NetName=VCC Pin=R20-1
Removed Pin From Net: NetName=VCC Pin=R21-1
Removed Pin From Net: NetName=VCC Pin=R22-1
Removed Pin From Net: NetName=GND Pin=R29-2
Removed Pin From Net: NetName=GND Pin=R30-2
Removed Pin From Net: NetName=GND Pin=R31-2
Removed Member From Class: ClassName=STM32_core_extentionv1 Member=R20
Removed Member From Class: ClassName=STM32_core_extentionv1 Member=R21
Removed Member From Class: ClassName=STM32_core_extentionv1 Member=R22
Removed Member From Class: ClassName=STM32_core_extentionv1 Member=R29
Removed Member From Class: ClassName=STM32_core_extentionv1 Member=R30
Removed Member From Class: ClassName=STM32_core_extentionv1 Member=R31
Added Room: Name=STM32_core_extentionv1
