Removed Pin From Net: NetName=USB_TTL_RXD Pin=H12-2
Removed Pin From Net: NetName=UART1_RX Pin=H12-3
Removed Pin From Net: NetName=UART1_TX Pin=H12-4
Removed Pin From Net: NetName=ESP_TX Pin=H12-5
Removed Pin From Net: NetName=ESP_RX Pin=H12-6
Removed Pin From Net: NetName=USB_TTL_RXD Pin=H12-7
Added Pin To Net: NetName=UART1_RX Pin=H12-2
Added Pin To Net: NetName=ESP_TX Pin=H12-3
Added Pin To Net: NetName=USB_TTL_RXD Pin=H12-4
Added Pin To Net: NetName=USB_TTL_RXD Pin=H12-5
Added Pin To Net: NetName=UART1_TX Pin=H12-6
Added Pin To Net: NetName=ESP_RX Pin=H12-7
